{
    "meta": {
      "description": "teste page"
    },
    "images": [{
      "src": "image-one.png",
      "alt": "Image one alt text"
    }, {
      "src": "image-two.png",
      "alt": "Image two alt text"
    }]
  }